<!DOCTYPE svg PUBLIC "-//W3C//DTD SVG 20010904//EN" "http://www.w3.org/TR/2001/REC-SVG-20010904/DTD/svg10.dtd">
<svg version="1.0" xmlns="http://www.w3.org/2000/svg" width="409px" height="296px" viewBox="0 0 4090 2960" preserveAspectRatio="xMidYMid meet">
<g id="layer101" fill="#ffffff" stroke="none">
 <path d="M2059 2882 l-425 -2 371 -1338 c205 -735 379 -1363 389 -1394 l16 -58 435 -2 c239 -2 435 0 435 5 0 4 -173 631 -385 1393 -212 762 -385 1387 -385 1389 0 9 -58 10 -451 7z"/>
 <path d="M84 2863 c22 -78 766 -2763 766 -2768 0 -3 199 -4 441 -3 l442 3 134 485 135 484 -212 766 c-117 421 -216 774 -220 784 -4 13 -16 -14 -37 -90 -179 -648 -238 -852 -242 -848 -3 3 -80 274 -171 602 l-166 597 -438 3 c-414 2 -437 1 -432 -15z"/>
 <path d="M3185 2868 c-15 -43 -265 -952 -265 -965 0 -19 419 -1531 429 -1551 4 -7 164 551 355 1240 191 689 349 1261 352 1271 5 16 -20 17 -431 17 -339 0 -437 -3 -440 -12z"/>
 </g>

</svg>